<svg width="32" height="24" viewBox="0 0 32 24" fill="none" xmlns="http://www.w3.org/2000/svg">
<path d="M28 14H24V18C24 18.5625 24.1927 19.0365 24.5781 19.4219C24.9635 19.8073 25.4323 20 25.9844 20C26.5365 20 27.0104 20.1979 27.4062 20.5938C27.8021 20.9896 28 21.4635 28 22.0156C28 22.5677 27.8021 23.0365 27.4062 23.4219C27.0104 23.8073 26.5417 24 26 24H22C21.3542 24 20.7188 23.6667 20.0938 23C19.4688 22.3333 18.9635 21.5312 18.5781 20.5938C18.1927 19.6562 18 18.7917 18 18V4C18 2.89583 18.3906 1.95312 19.1719 1.17188C19.9531 0.390625 20.8958 0 22 0H28C29.1042 0 30.0469 0.390625 30.8281 1.17188C31.6094 1.95312 32 2.89583 32 4V10C32 11.1042 31.6094 12.0469 30.8281 12.8281C30.0469 13.6094 29.1042 14 28 14ZM10 14H6V18C6 18.5625 6.19271 19.0365 6.57812 19.4219C6.96354 19.8073 7.4375 20 8 20C8.5625 20 9.03646 20.1979 9.42188 20.5938C9.80729 20.9896 10 21.4635 10 22.0156C10 22.5677 9.80729 23.0365 9.42188 23.4219C9.03646 23.8073 8.5625 24 8 24H4C3.375 24 2.74479 23.6667 2.10938 23C1.47396 22.3333 0.963542 21.5312 0.578125 20.5938C0.192708 19.6562 0 18.7917 0 18V4C0 2.89583 0.390625 1.95312 1.17188 1.17188C1.95312 0.390625 2.89583 0 4 0H10C11.1042 0 12.0469 0.390625 12.8281 1.17188C13.6094 1.95312 14 2.89583 14 4V10C14 11.1042 13.6094 12.0469 12.8281 12.8281C12.0469 13.6094 11.1042 14 10 14Z" fill="black"/>
</svg>
