<svg width="171" height="51" viewBox="0 0 171 51" fill="none" xmlns="http://www.w3.org/2000/svg">
<path d="M21.6915 3.62405C21.8826 3.79047 22.1015 3.92184 22.3383 4.01213C22.6081 4.1072 22.8933 4.15107 23.1791 4.14149C23.7348 4.1757 24.2815 3.98981 24.7012 3.62405C25.054 3.2595 25.2512 2.77206 25.2512 2.26475C25.2512 1.75744 25.054 1.27 24.7012 0.905453C24.3454 0.549711 23.828 0.388009 23.1791 0.388009C22.8933 0.378424 22.6081 0.422296 22.3383 0.51737C22.1015 0.607654 21.8826 0.739032 21.6915 0.905453C21.4995 1.06617 21.3542 1.27563 21.2711 1.51183C21.1647 1.75679 21.1097 2.02094 21.1094 2.28799C21.1161 2.555 21.1709 2.8186 21.2711 3.06618C21.3703 3.27973 21.5135 3.46986 21.6915 3.62405" fill="white"/>
<path d="M28.7137 16.7946H24.9603V5.8252H17.4189V8.73783H21.3685V16.7946H17.4189V19.6749H28.7137V16.7946Z" fill="white"/>
<path d="M33.6984 18.5814C34.1165 19.0645 34.6517 19.432 35.2527 19.6487C35.885 19.8762 36.5537 19.9859 37.2255 19.9721C37.9879 19.9791 38.7378 19.7778 39.3943 19.3899C40.0687 18.9827 40.6439 18.4303 41.078 17.7729L41.2801 19.7154H44.5142V5.82324H40.9163V15.5657C40.6972 16.0252 40.3451 16.4083 39.9057 16.6653C39.3776 16.941 38.787 17.0748 38.1916 17.0534C37.8289 17.057 37.4679 17.0024 37.1224 16.8917C36.8363 16.7992 36.5871 16.6179 36.4109 16.3742C36.1997 16.1021 36.0656 15.7781 36.0228 15.4364C35.9241 14.9681 35.8807 14.4898 35.8935 14.0114V5.82324H32.332V14.0437C32.319 14.9517 32.4388 15.8567 32.6878 16.73C32.8914 17.4092 33.2358 18.038 33.6984 18.5754" fill="white"/>
<path d="M49.0716 17.9589C49.5235 18.5697 50.11 19.0684 50.7856 19.4162C51.4868 19.7726 52.2651 19.9503 53.0514 19.9337C53.7573 19.9446 54.4559 19.7895 55.0909 19.4809C55.6924 19.1742 56.2221 18.7437 56.6452 18.2176L56.8474 19.6749H60.043V0H56.4512V7.06026C56.0479 6.59507 55.5514 6.21977 54.9939 5.95867C54.3935 5.69042 53.7413 5.55791 53.0838 5.57059C52.2864 5.54997 51.4966 5.72851 50.7856 6.09005C50.1095 6.43615 49.5228 6.9343 49.0716 7.54536C48.5649 8.20434 48.2008 8.9615 48.0023 9.76875C47.7468 10.7069 47.627 11.6769 47.6466 12.649V12.9219C47.6453 13.8717 47.7648 14.8179 48.0023 15.7375C48.2142 16.5399 48.5771 17.2945 49.0716 17.9609V17.9589ZM51.1737 12.6551C51.1758 12.1007 51.2306 11.5478 51.3374 11.0037C51.4198 10.5366 51.584 10.0878 51.8225 9.67779C52.0352 9.30862 52.335 8.99706 52.6957 8.77024C53.0867 8.53995 53.5359 8.42764 53.9893 8.44684C54.5233 8.42808 55.0515 8.56276 55.5113 8.83493C55.922 9.11552 56.2561 9.49416 56.4835 9.93651V15.5677C56.2594 16.0118 55.9245 16.3905 55.5113 16.6673C55.0515 16.9395 54.5233 17.0741 53.9893 17.0554C53.5358 17.0756 53.0863 16.9633 52.6957 16.732C52.3436 16.5092 52.0453 16.2109 51.8225 15.8588C51.584 15.4597 51.4197 15.0208 51.3374 14.5632C51.229 14.031 51.1742 13.4893 51.1737 12.9462V12.6551Z" fill="white"/>
<path d="M66.2885 19.6424C66.9142 19.8545 67.5702 19.9637 68.2309 19.9658C68.6443 19.9725 69.0569 19.9291 69.4598 19.8364C69.8125 19.7527 70.159 19.6446 70.4968 19.513C70.7978 19.3903 71.0807 19.2271 71.3376 19.0279C71.5855 18.8512 71.8132 18.6479 72.0167 18.4215C72.0517 18.6626 72.1058 18.9005 72.1784 19.133C72.2285 19.336 72.3046 19.5317 72.4048 19.7151H76.031V19.4888C75.8283 19.0909 75.6859 18.6652 75.6085 18.2255C75.5076 17.6164 75.4643 16.9992 75.4792 16.3821V10.4194C75.4903 9.68227 75.3356 8.95209 75.0264 8.28289C74.7467 7.68368 74.3248 7.16189 73.7975 6.76291C73.2333 6.34691 72.5965 6.03981 71.9197 5.85738C71.1609 5.64512 70.3771 5.53567 69.5892 5.53196C68.7453 5.52586 67.9052 5.64645 67.097 5.88972C66.4266 6.09334 65.801 6.42259 65.2536 6.85993C64.7803 7.23683 64.3936 7.71109 64.1197 8.25055C63.8621 8.77432 63.7293 9.3506 63.7316 9.93426H67.2991C67.2898 9.70177 67.328 9.46981 67.4114 9.25259C67.4948 9.03537 67.6217 8.83746 67.7842 8.67098C68.1076 8.34757 68.6574 8.21821 69.3689 8.21821C70.1774 8.21821 70.8262 8.42034 71.2466 8.80034C71.4623 9.00264 71.6318 9.24915 71.7434 9.523C71.8551 9.79685 71.9062 10.0916 71.8934 10.387V11.1955H69.9187C67.7519 11.1955 66.1329 11.5836 65.0333 12.3941C63.9337 13.2047 63.3819 14.3345 63.3819 15.7919C63.3782 16.3573 63.498 16.9166 63.733 17.4309C63.968 17.9451 64.3124 18.4019 64.7422 18.7692C65.1977 19.1588 65.7251 19.4555 66.2946 19.6424H66.2885ZM67.1677 14.6579C67.2948 14.3908 67.484 14.1579 67.7195 13.9788C68.0095 13.7646 68.3394 13.6106 68.6897 13.526C69.1532 13.4157 69.6282 13.3614 70.1046 13.3643H71.9238V15.7514C71.8119 15.9451 71.67 16.1198 71.5033 16.2689C71.3068 16.4453 71.0896 16.5974 70.8565 16.7217C70.5921 16.8683 70.3084 16.9772 70.0137 17.0451C69.6852 17.1385 69.3445 17.1821 69.003 17.1744C68.3239 17.1744 67.8065 17.0127 67.4831 16.6893C67.3188 16.5363 67.1879 16.3511 67.0985 16.1452C67.0091 15.9393 66.9632 15.7172 66.9636 15.4927C66.965 15.1999 67.0342 14.9114 67.1657 14.6499" fill="white"/>
<path d="M82.2768 19.4162C82.9778 19.773 83.7562 19.9508 84.5427 19.9337C85.2485 19.9442 85.947 19.7891 86.5821 19.4809C87.1833 19.1747 87.7125 18.7441 88.1344 18.2176L88.3366 19.6749H91.5403V0H87.9404V7.06026C87.5379 6.59418 87.0412 6.21873 86.4831 5.95867C85.8833 5.69064 85.2318 5.55814 84.575 5.57059C83.7776 5.54954 82.9876 5.72811 82.2768 6.09005C81.6001 6.43614 81.0127 6.93426 80.5608 7.54536C80.054 8.20402 79.6905 8.96134 79.4935 9.76875C79.238 10.7069 79.1182 11.6769 79.1378 12.649V12.9219C79.1365 13.8717 79.256 14.8179 79.4935 15.7375C79.7245 16.5323 80.0851 17.2836 80.5608 17.9609C81.0211 18.5646 81.6065 19.0618 82.2768 19.4182V19.4162ZM82.6972 12.6551C82.6997 12.1008 82.7538 11.548 82.8589 11.0037C82.9413 10.5366 83.1055 10.0878 83.344 9.67779C83.5578 9.30873 83.8582 8.99725 84.2193 8.77025C84.6102 8.53974 85.0595 8.42741 85.5129 8.44684C86.0468 8.42831 86.575 8.56297 87.0349 8.83493C87.4454 9.11513 87.779 9.4939 88.0051 9.93651V15.5677C87.7817 16.0117 87.4475 16.3904 87.0349 16.6673C86.575 16.9393 86.0468 17.0739 85.5129 17.0554C85.0594 17.0759 84.6098 16.9635 84.2193 16.732C83.8667 16.509 83.5679 16.2108 83.344 15.8588C83.1056 15.4597 82.9412 15.0208 82.8589 14.5632C82.7522 14.0308 82.698 13.4892 82.6972 12.9462V12.6551Z" fill="white"/>
<path d="M107.003 16.374V10.4193C107.013 9.68234 106.858 8.95242 106.55 8.28285C106.27 7.68307 105.847 7.16113 105.319 6.76286C104.755 6.34685 104.119 6.03974 103.443 5.85734C102.684 5.64536 101.9 5.53592 101.113 5.53191C100.271 5.52647 99.434 5.64706 98.6284 5.88968C97.9574 6.09329 97.3312 6.42253 96.783 6.85988C96.3103 7.23682 95.9243 7.7111 95.6511 8.25051C95.3936 8.77428 95.2607 9.35055 95.263 9.93422H98.8225C98.8131 9.70202 98.8512 9.47034 98.9346 9.25344C99.0181 9.03654 99.145 8.83899 99.3076 8.67295C99.631 8.34753 100.183 8.21817 100.894 8.21817C101.703 8.21817 102.35 8.42029 102.772 8.80029C102.988 9.0026 103.157 9.24911 103.269 9.52295C103.38 9.7968 103.432 10.0915 103.419 10.387V11.1955H101.444C99.2752 11.1955 97.6582 11.5856 96.5566 12.3941C95.4551 13.2026 94.9073 14.3345 94.9073 15.7918C94.9038 16.357 95.0234 16.9161 95.258 17.4303C95.4926 17.9445 95.8364 18.4014 96.2656 18.7691C96.7212 19.1423 97.2355 19.4373 97.7876 19.6423C98.4133 19.8546 99.0693 19.9638 99.73 19.9657C100.143 19.9724 100.556 19.929 100.959 19.8364C101.311 19.7527 101.657 19.6446 101.994 19.513C102.295 19.3903 102.578 19.2271 102.835 19.0279C103.084 18.8517 103.312 18.6483 103.516 18.4215C103.551 18.6626 103.605 18.9005 103.678 19.133C103.728 19.336 103.804 19.5316 103.904 19.7151H107.522V19.4887C107.319 19.0911 107.178 18.6652 107.102 18.2254C107.03 17.6137 106.997 16.9979 107.005 16.382L107.003 16.374ZM103.413 15.7352C103.301 15.9289 103.159 16.1035 102.992 16.2527C102.795 16.4291 102.577 16.5811 102.344 16.7054C102.08 16.8518 101.797 16.9606 101.503 17.0288C101.174 17.1223 100.833 17.1659 100.492 17.1582C99.8109 17.1582 99.2934 16.9965 98.97 16.6731C98.8064 16.5197 98.6761 16.3344 98.5871 16.1285C98.4981 15.9227 98.4523 15.7008 98.4526 15.4765C98.4501 15.1729 98.5194 14.8731 98.6547 14.6013C98.7801 14.3336 98.9688 14.1005 99.2045 13.9222C99.4949 13.7076 99.8256 13.5536 100.177 13.4694C100.64 13.359 101.115 13.3047 101.592 13.3077H103.411L103.413 15.7352Z" fill="white"/>
<path d="M114.577 9.83722C114.828 9.41597 115.185 9.06759 115.612 8.82659C116.087 8.56573 116.625 8.44254 117.166 8.47085C117.537 8.46009 117.908 8.50367 118.266 8.60021C118.573 8.68054 118.86 8.8237 119.109 9.02063C119.36 9.24518 119.54 9.53813 119.626 9.8635C119.771 10.3014 119.839 10.7608 119.828 11.2218V19.701H123.388V11.1632C123.404 10.2975 123.284 9.43468 123.032 8.60627C122.849 7.95703 122.501 7.36639 122.022 6.89224C121.604 6.44587 121.08 6.11157 120.5 5.92002C119.884 5.71055 119.239 5.60136 118.589 5.59662C117.765 5.58566 116.951 5.7868 116.227 6.18076C115.498 6.56457 114.874 7.11947 114.407 7.79777L114.246 5.823H111.012V19.707H114.577V9.83722Z" fill="white"/>
<path d="M135.256 5.8252H127.522V8.73783H131.664V16.7946H127.522V19.6749H139.238V16.7946H135.256V5.8252Z" fill="white"/>
<path d="M138.331 0.517578H134.416L132.021 4.10936H134.771L138.331 0.517578Z" fill="white"/>
<path d="M154.254 16.374V10.4194C154.264 9.68238 154.109 8.95246 153.801 8.28289C153.521 7.68368 153.099 7.16189 152.572 6.76291C152.008 6.3474 151.371 6.04035 150.694 5.85738C149.936 5.64512 149.152 5.53567 148.364 5.53196C147.52 5.52586 146.68 5.64645 145.872 5.88972C145.201 6.09379 144.575 6.42298 144.026 6.85993C143.554 7.23758 143.168 7.7117 142.894 8.25055C142.637 8.77432 142.504 9.3506 142.506 9.93426H146.066C146.056 9.70186 146.094 9.46996 146.178 9.25298C146.262 9.036 146.389 8.83858 146.553 8.673C146.876 8.34757 147.426 8.21821 148.137 8.21821C148.946 8.21821 149.595 8.42034 150.015 8.80034C150.231 9.00264 150.4 9.24915 150.512 9.523C150.624 9.79685 150.675 10.0916 150.662 10.387V11.1955H148.687C146.52 11.1955 144.901 11.5856 143.802 12.3941C142.702 13.2026 142.15 14.3345 142.15 15.7919C142.147 16.3573 142.267 16.9166 142.502 17.4309C142.737 17.9451 143.081 18.4019 143.511 18.7692C143.966 19.1419 144.48 19.4369 145.031 19.6424C145.656 19.8545 146.311 19.9637 146.971 19.9658C147.385 19.9726 147.799 19.9292 148.202 19.8364C148.554 19.7527 148.9 19.6447 149.237 19.513C149.539 19.3908 149.823 19.2276 150.08 19.0279C150.328 18.8512 150.556 18.6479 150.759 18.4215C150.794 18.6626 150.848 18.9005 150.921 19.133C150.971 19.336 151.047 19.5317 151.147 19.7151H154.773V19.4888C154.57 19.0913 154.427 18.6654 154.351 18.2255C154.279 17.6137 154.247 16.998 154.254 16.3821V16.374ZM150.694 15.7353C150.582 15.9289 150.441 16.1036 150.274 16.2527C149.848 16.6295 149.337 16.896 148.784 17.0289C148.456 17.1223 148.115 17.166 147.774 17.1582C147.094 17.1582 146.577 16.9965 146.252 16.6731C146.088 16.5198 145.958 16.3344 145.869 16.1286C145.78 15.9227 145.734 15.7008 145.734 15.4766C145.732 15.173 145.801 14.8731 145.936 14.6014C146.062 14.3334 146.252 14.1003 146.488 13.9222C146.778 13.708 147.108 13.554 147.458 13.4694C147.922 13.3591 148.397 13.3048 148.873 13.3077H150.692L150.694 15.7353Z" fill="white"/>
<path d="M170.048 19.6748H158.365V22.4581H170.048V19.6748Z" fill="white"/>
<path d="M1.39844 29.2862H4.92756V42.1656H1.39844V45.0459H12.1758V42.1656H8.55168V29.2862H12.1758V26.3735H1.39844V29.2862Z" fill="white"/>
<path d="M28.0341 32.2312C27.6177 31.7844 27.0947 31.4506 26.5141 31.261C25.8989 31.051 25.254 30.9411 24.604 30.9356C23.7795 30.9235 22.9657 31.1239 22.2412 31.5177C21.513 31.9017 20.8888 32.4566 20.422 33.1347L20.2037 31.2287H16.9697V45.1107H20.5635V35.2409C20.8132 34.8185 21.1703 34.4699 21.5984 34.2302C22.0724 33.9687 22.6101 33.8448 23.1507 33.8725C23.5222 33.8626 23.8932 33.9062 24.2523 34.0018C24.5585 34.0837 24.8447 34.2275 25.0932 34.4243C25.345 34.6472 25.5251 34.9398 25.6106 35.2651C25.7552 35.703 25.8236 36.1624 25.8127 36.6234V45.1026H29.3742V36.5709C29.3902 35.7052 29.2702 34.8424 29.0185 34.014C28.8493 33.3487 28.5149 32.7368 28.0462 32.2352" fill="white"/>
<path d="M59.4932 32.8129C58.9408 32.2148 58.2677 31.7408 57.5184 31.4223C56.6637 31.0854 55.7508 30.9205 54.8322 30.9372C53.9088 30.9235 52.9924 31.0996 52.1399 31.4546C51.335 31.8019 50.6084 32.3079 50.0034 32.9423C49.4 33.6023 48.9281 34.3713 48.6128 35.2081C48.2791 36.1424 48.1148 37.1287 48.1277 38.1207V38.6382C48.1143 39.5404 48.2899 40.4355 48.6431 41.2658C48.9688 42.0749 49.466 42.8038 50.1004 43.4023C50.739 44.0184 51.4952 44.4996 52.3238 44.8172C53.2518 45.1773 54.2411 45.3531 55.2364 45.3346C55.8804 45.345 56.5228 45.2688 57.1465 45.1082C57.7093 44.9878 58.2532 44.792 58.7635 44.5261C59.2168 44.3105 59.6412 44.0389 60.0268 43.7176C60.3594 43.4456 60.6531 43.1293 60.9 42.7777L59.1193 40.8696C58.9154 41.1285 58.6758 41.3571 58.4078 41.5488C58.1351 41.7416 57.8424 41.9043 57.5346 42.0339C57.2087 42.1655 56.87 42.263 56.524 42.325C56.1828 42.3893 55.8363 42.4218 55.4891 42.422C55.0262 42.4311 54.5657 42.3544 54.1308 42.1956C53.726 42.0517 53.3522 41.8322 53.0292 41.5488C52.3509 40.9599 51.9134 40.1417 51.8003 39.2506H61.2355V37.7306C61.2515 36.7882 61.1108 35.8497 60.8191 34.9534C60.5012 34.1714 60.0528 33.449 59.4932 32.8169V32.8129ZM57.6478 36.8312H51.7861C51.8714 36.4082 52.0015 35.9956 52.1742 35.6002C52.4796 34.9174 53.0196 34.3666 53.6962 34.0479C54.0455 33.9046 54.4184 33.8279 54.7958 33.8215C55.2064 33.8092 55.6147 33.8865 55.9924 34.0479C56.329 34.164 56.6303 34.3645 56.8676 34.63C57.1058 34.8827 57.2925 35.1792 57.4174 35.5032C57.5454 35.8457 57.6217 36.2054 57.6437 36.5704L57.6478 36.8312Z" fill="white"/>
<path d="M72.0499 25.3711H64.2822V28.2837H68.4581V42.1657H64.2822V45.046H76.0318V42.1657H72.0499V25.3711Z" fill="white"/>
<path d="M87.2298 31.1963H79.6885V34.1089H83.636V42.1657H79.6885V45.046H90.9833V42.1657H87.2298V31.1963Z" fill="white"/>
<path d="M85.4165 25.7267C85.1306 25.7171 84.8455 25.761 84.5757 25.856C84.3389 25.9463 84.12 26.0777 83.9289 26.2441C83.7362 26.4047 83.5903 26.6141 83.5064 26.8505C83.3999 27.0961 83.3448 27.3609 83.3447 27.6287C83.3517 27.895 83.4065 28.1579 83.5064 28.4048C83.6062 28.6326 83.7498 28.8386 83.9289 29.0112C84.12 29.1776 84.3389 29.309 84.5757 29.3993C84.8455 29.4944 85.1306 29.5382 85.4165 29.5287C85.9721 29.5624 86.5187 29.3766 86.9385 29.0112C87.2913 28.6467 87.4886 28.1592 87.4886 27.6519C87.4886 27.1446 87.2913 26.6572 86.9385 26.2926C86.7391 26.0953 86.5008 25.9416 86.2388 25.8414C85.9767 25.7412 85.6967 25.6966 85.4165 25.7105" fill="white"/>
<path d="M122.215 32.8129C121.662 32.2148 120.989 31.7408 120.24 31.4223C119.385 31.0854 118.472 30.9205 117.554 30.9372C116.632 30.9243 115.718 31.1004 114.867 31.4546C114.063 31.8025 113.336 32.3084 112.731 32.9423C112.128 33.6023 111.656 34.3713 111.34 35.2081C111.007 36.1424 110.842 37.1287 110.855 38.1207V38.6382C110.841 39.5407 111.018 40.4359 111.373 41.2658C111.697 42.0752 112.193 42.8043 112.828 43.4023C113.467 44.0184 114.223 44.4996 115.051 44.8172C115.979 45.1771 116.969 45.3529 117.964 45.3346C118.608 45.345 119.25 45.2688 119.874 45.1082C120.437 44.9878 120.981 44.792 121.491 44.5261C121.944 44.3105 122.369 44.0389 122.754 43.7176C123.087 43.4456 123.381 43.1293 123.628 42.7777L121.849 40.8696C121.644 41.1281 121.404 41.3566 121.135 41.5488C120.863 41.7416 120.57 41.9042 120.262 42.0339C119.936 42.1655 119.598 42.263 119.252 42.325C118.917 42.3917 118.576 42.4275 118.235 42.4321C117.772 42.4412 117.311 42.3645 116.877 42.2057C116.472 42.0613 116.098 41.8418 115.775 41.5589C115.097 40.97 114.659 40.1518 114.546 39.2607H123.963V37.7407C123.978 36.7961 123.836 35.8555 123.543 34.9575C123.2 34.1881 122.754 33.4693 122.217 32.821L122.215 32.8129ZM120.371 36.8352H114.51C114.595 36.4123 114.725 35.9996 114.898 35.6043C115.056 35.2558 115.275 34.9383 115.545 34.6664C115.801 34.4186 116.096 34.2139 116.418 34.06C116.768 33.9169 117.141 33.8402 117.519 33.8336C117.931 33.8211 118.34 33.8983 118.718 34.06C119.054 34.1767 119.354 34.3771 119.591 34.6421C119.829 34.8948 120.016 35.1914 120.141 35.5153C120.269 35.8578 120.345 36.2175 120.367 36.5826L120.371 36.8352Z" fill="white"/>
<path d="M138.651 32.2311C138.233 31.785 137.709 31.4513 137.129 31.2609C136.513 31.0508 135.869 30.9409 135.219 30.9355C134.394 30.9245 133.58 31.1257 132.856 31.5196C132.127 31.9034 131.503 32.4583 131.037 33.1366L130.81 31.2286H127.576V45.1106H131.172V35.2408C131.422 34.8189 131.779 34.4704 132.207 34.2301C132.682 33.9684 133.22 33.8445 133.761 33.8724C134.132 33.8626 134.502 33.9062 134.861 34.0017C135.168 34.0836 135.454 34.2274 135.704 34.4242C135.955 34.6476 136.135 34.9401 136.221 35.265C136.366 35.7029 136.434 36.1623 136.423 36.6233V45.1025H139.983V36.5708C139.999 35.7051 139.879 34.8423 139.627 34.0139C139.459 33.3484 139.125 32.7364 138.657 32.2352" fill="white"/>
<path d="M170.922 37.765C170.937 36.8204 170.795 35.8798 170.501 34.9817C170.242 34.1834 169.824 33.4457 169.272 32.8129C168.72 32.2148 168.047 31.7408 167.298 31.4223C166.443 31.0853 165.53 30.9204 164.611 30.9372C163.69 30.9243 162.776 31.1004 161.925 31.4546C161.121 31.802 160.395 32.308 159.791 32.9423C159.186 33.6017 158.713 34.3708 158.398 35.2081C158.064 36.1424 157.9 37.1287 157.913 38.1208V38.6382C157.899 39.5407 158.075 40.436 158.43 41.2658C158.754 42.0752 159.251 42.8043 159.886 43.4023C160.525 44.018 161.281 44.4992 162.109 44.8172C163.037 45.1772 164.026 45.3529 165.022 45.3346C165.666 45.345 166.308 45.2689 166.932 45.1083C167.494 44.9873 168.038 44.7915 168.549 44.5261C169.001 44.3101 169.425 44.0385 169.81 43.7176C170.143 43.4456 170.436 43.1294 170.683 42.7777L168.904 40.8697C168.7 41.128 168.461 41.3566 168.193 41.5488C167.919 41.7412 167.626 41.9038 167.318 42.0339C166.992 42.1654 166.653 42.2629 166.307 42.325C165.965 42.3893 165.618 42.4218 165.27 42.422C164.807 42.4311 164.347 42.3544 163.912 42.1956C163.508 42.0508 163.134 41.8314 162.81 41.5488C162.132 40.9599 161.695 40.1418 161.581 39.2506H171.001V37.763L170.922 37.765ZM167.427 36.8272H161.565C161.651 36.4042 161.781 35.9916 161.953 35.5962C162.112 35.2472 162.331 34.9296 162.602 34.6583C162.858 34.4097 163.153 34.2048 163.475 34.052C163.825 33.9087 164.198 33.8319 164.575 33.8256C164.986 33.813 165.395 33.8903 165.774 34.052C166.11 34.1681 166.41 34.3685 166.647 34.6341C166.885 34.8867 167.072 35.1833 167.196 35.5073C167.325 35.8498 167.401 36.2095 167.423 36.5745L167.427 36.8272Z" fill="white"/>
<path d="M103.411 32.4896C103.015 31.9876 102.504 31.5883 101.921 31.3254C101.259 31.0368 100.542 30.8934 99.8192 30.9049C99.0118 30.8843 98.2116 31.062 97.4887 31.4224C96.7923 31.7659 96.1833 32.2636 95.708 32.8777C95.1917 33.5432 94.8075 34.3013 94.5761 35.1112C94.3072 36.0453 94.1744 37.0134 94.1819 37.9854V38.2441C94.1786 39.1993 94.3148 40.1499 94.5862 41.0658C94.8254 41.8695 95.209 42.6229 95.7181 43.2892C96.1898 43.8945 96.7861 44.3915 97.4665 44.7465C98.1887 45.1067 98.9882 45.2844 99.795 45.264C100.463 45.2798 101.127 45.1473 101.737 44.8759C102.287 44.6175 102.782 44.2551 103.195 43.8087V46.3009C103.2 46.3567 103.188 46.4128 103.162 46.4626C103.167 46.5516 103.152 46.6405 103.118 46.7232C103.085 46.8059 103.034 46.8805 102.97 46.9419C102.905 47.0032 102.828 47.05 102.744 47.0789C102.659 47.1078 102.57 47.1182 102.481 47.1094H95.9667V50.022H104.737C105.007 50.0295 105.275 49.9817 105.526 49.8816C105.776 49.7815 106.004 49.6312 106.194 49.4399C106.582 49.0498 106.744 48.8335 106.744 48.2089V31.196H103.51L103.411 32.4896ZM103.209 41.0658C102.991 41.4911 102.653 41.8426 102.237 42.0764C101.758 42.3261 101.224 42.4486 100.684 42.4322C100.23 42.4526 99.78 42.3402 99.3887 42.1088C99.027 41.887 98.718 41.589 98.4832 41.2356C98.234 40.8392 98.0586 40.4009 97.9657 39.942C97.8434 39.412 97.789 38.8687 97.804 38.325V38.0663C97.8037 37.5096 97.8715 36.955 98.0062 36.4149C98.1098 35.9439 98.2959 35.495 98.556 35.0889C98.7896 34.7258 99.0984 34.417 99.4615 34.1834C99.8544 33.9558 100.303 33.8431 100.757 33.858C101.286 33.8459 101.809 33.969 102.277 34.2158C102.694 34.4496 103.032 34.8011 103.249 35.2264V41.088L103.209 41.0658Z" fill="white"/>
<path d="M149.724 27.7983H146.163V31.1961H142.991V33.8237H146.163V43.2731C146.163 43.8572 146.365 44.116 146.714 44.5041C146.904 44.6953 147.132 44.8456 147.382 44.9457C147.632 45.0458 147.9 45.0936 148.17 45.0862H154.84V42.1655H150.407C149.987 42.1655 149.76 41.9391 149.728 41.5187V33.8156H154.907V31.188H149.728L149.724 27.7983Z" fill="white"/>
<path d="M39.3294 27.7983H35.768V31.1961H32.5986V33.8237H35.768V43.2731C35.768 43.8572 35.9701 44.116 36.3177 44.5041C36.5081 44.6954 36.7355 44.8458 36.9862 44.9459C37.2368 45.046 37.5053 45.0938 37.7751 45.0862H44.4452V42.1655H40.0126C39.9239 42.1743 39.8344 42.1639 39.75 42.135C39.6657 42.1061 39.5886 42.0593 39.524 41.9979C39.4594 41.9366 39.4087 41.862 39.3755 41.7793C39.3423 41.6966 39.3272 41.6077 39.3314 41.5187V33.8156H44.5099V31.188H39.3294V27.7983Z" fill="white"/>
<path d="M10.0735 8.089H13.5682V7.6039C13.5736 7.4093 13.5628 7.21459 13.5359 7.02177C13.5011 6.26456 13.3595 5.51604 13.1155 4.79839C12.858 3.98905 12.4176 3.24988 11.8283 2.63822C11.2391 2.02655 10.5169 1.55882 9.71774 1.27129C8.79468 0.934856 7.81777 0.770439 6.83543 0.78619C6.24745 0.785837 5.66141 0.853666 5.08906 0.988316C4.74544 1.08679 4.40797 1.20558 4.07843 1.34406C3.2363 1.74583 2.49565 2.33241 1.91164 3.06011C1.27704 3.84355 0.803735 4.74483 0.518988 5.712C0.156391 6.82058 -0.0184953 7.98194 0.00154645 9.14814V11.6383C-0.00405637 12.787 0.148295 13.9309 0.454313 15.0381C0.722778 15.9913 1.17302 16.8835 1.78026 17.6657C2.36789 18.3906 3.10849 18.9766 3.94907 19.3818C4.11077 19.4465 4.27247 19.5111 4.46651 19.5839C5.2309 19.8244 6.02806 19.9444 6.82936 19.9396C7.81191 19.9582 8.78934 19.7937 9.71168 19.4545C10.5103 19.1661 11.232 18.698 11.8211 18.0865C12.4102 17.475 12.851 16.7363 13.1094 15.9274C13.3407 15.2451 13.4834 14.5359 13.5339 13.8172C13.5608 13.5703 13.5716 13.3218 13.5662 13.0734V12.6207H10.0735V13.8496C10.0088 14.9815 9.68339 15.792 9.1336 16.2751C8.58382 16.7582 7.83999 17.0189 6.90011 17.0189C5.7682 17.0189 4.9597 16.5662 4.44024 15.693C3.92077 14.8198 3.66407 13.4595 3.66407 11.6141V9.06123C3.66003 8.29056 3.72769 7.52118 3.8662 6.76305C3.96822 6.16263 4.1611 5.58125 4.43821 5.03892C4.67908 4.59455 5.03788 4.22526 5.47512 3.9717C5.92283 3.73324 6.4232 3.61093 6.93042 3.61595C7.39433 3.60128 7.85658 3.67821 8.29073 3.84233C8.65675 3.96656 8.98889 4.17414 9.26094 4.44871C9.51954 4.7603 9.70715 5.12448 9.81072 5.51594C9.95669 5.98927 10.0443 6.47868 10.0715 6.97326V8.07283L10.0735 8.089Z" fill="white"/>
</svg>
